<svg width="10" height="15" viewBox="0 0 10 15"  xmlns="http://www.w3.org/2000/svg">
<path d="M5 4C3.79699 4 2.72016 4.74624 2.29775 5.87266L0 12H10L7.70225 5.87266C7.27984 4.74624 6.20301 4 5 4Z" />
<path d="M5.70711 13.7071C5.89464 13.5196 6 13.2652 6 13H4C4 13.2652 4.10536 13.5196 4.29289 13.7071C4.48043 13.8946 4.73478 14 5 14C5.26522 14 5.51957 13.8946 5.70711 13.7071Z" />
</svg>
