<svg width="24" height="24" viewBox="0 0 24 24" fill="none" xmlns="http://www.w3.org/2000/svg">
<path d="M6 9V19C6 19.5523 6.44772 20 7 20H17C17.5523 20 18 19.5523 18 19V9" stroke="#222A46" stroke-width="2"/>
<path d="M10 9V17" stroke="#222A46" stroke-width="2"/>
<path d="M14 9V17" stroke="#222A46" stroke-width="2"/>
<path d="M4 7L20 7" stroke="#222A46" stroke-width="2"/>
<path d="M9 6V5C9 4.44772 9.44772 4 10 4H14C14.5523 4 15 4.44772 15 5V6" stroke="#222A46" stroke-width="2"/>
</svg>
