<svg width="32" height="32" viewBox="0 0 32 32"  xmlns="http://www.w3.org/2000/svg">
<path d="M16 2.66666C8.66667 2.66666 2.66667 8.66666 2.66667 16C2.66667 22.6667 7.6 28.1333 13.8667 29.2V19.8667H10.5333V16H13.8667V13.0667C13.8667 9.73332 15.8667 7.86666 18.9333 7.86666C20.4 7.86666 21.8667 8.13332 21.8667 8.13332V11.4667H20.1333C18.5333 11.4667 18 12.5333 18 13.6V16H21.7333L21.2 19.8667H18.1333V29.2C24.4 28.1333 29.3333 22.6667 29.3333 16C29.3333 8.66666 23.3333 2.66666 16 2.66666Z" />
</svg>
