<svg width="24" height="24" viewBox="0 0 24 24" fill="none" xmlns="http://www.w3.org/2000/svg">
<path d="M12 20C-5.28974 7.86313 6.70986 -0.139204 12 6.26266C17.2901 -0.139204 29.2897 7.86313 12 20Z" fill="#2C73F3" stroke="#2C73F3" stroke-width="2" stroke-miterlimit="10"/>
</svg>
